{
    "total": 1886,
    "first": "http:\/\/overwatch-api.net\/api\/v1\/reward?page=1",
    "next": "http:\/\/overwatch-api.net\/api\/v1\/reward?page=2",
    "previous": null,
    "last": "http:\/\/overwatch-api.net\/api\/v1\/reward?page=38",
    "data": [
        {
            "id": 1,
            "name": "Logo",
            "cost": null,
            "url": "https:\/\/overwatch-api.net\/api\/v1\/reward\/1",
            "type": {
                "id": 1,
                "name": "spray",
                "url": "https:\/\/overwatch-api.net\/api\/v1\/reward-type\/1"
            },
            "quality": {
                "name": "common"
            }
        },
        {
            "id": 2,
            "name": "You Are Not Prepared!",
            "cost": null,
            "url": "https:\/\/overwatch-api.net\/api\/v1\/reward\/2",
            "type": {
                "id": 1,
                "name": "spray",
                "url": "https:\/\/overwatch-api.net\/api\/v1\/reward-type\/1"
            },
            "quality": {
                "name": "common"
            }
        },
        {
            "id": 3,
            "name": "Punch",
            "cost": {
                "currency": "credit",
                "value": 25
            },
            "url": "https:\/\/overwatch-api.net\/api\/v1\/reward\/3",
            "type": {
                "id": 1,
                "name": "spray",
                "url": "https:\/\/overwatch-api.net\/api\/v1\/reward-type\/1"
            },
            "quality": {
                "name": "common"
            }
        },
        {
            "id": 4,
            "name": "Catcher",
            "cost": {
                "currency": "credit",
                "value": 25
            },
            "url": "https:\/\/overwatch-api.net\/api\/v1\/reward\/4",
            "type": {
                "id": 1,
                "name": "spray",
                "url": "https:\/\/overwatch-api.net\/api\/v1\/reward-type\/1"
            },
            "quality": {
                "name": "common"
            }
        },
        {
            "id": 5,
            "name": "Caution",
            "cost": {
                "currency": "credit",
                "value": 25
            },
            "url": "https:\/\/overwatch-api.net\/api\/v1\/reward\/5",
            "type": {
                "id": 1,
                "name": "spray",
                "url": "https:\/\/overwatch-api.net\/api\/v1\/reward-type\/1"
            },
            "quality": {
                "name": "common"
            }
        },
        {
            "id": 6,
            "name": "Dance",
            "cost": {
                "currency": "credit",
                "value": 25
            },
            "url": "https:\/\/overwatch-api.net\/api\/v1\/reward\/6",
            "type": {
                "id": 1,
                "name": "spray",
                "url": "https:\/\/overwatch-api.net\/api\/v1\/reward-type\/1"
            },
            "quality": {
                "name": "common"
            }
        },
        {
            "id": 7,
            "name": "Dark Logo",
            "cost": {
                "currency": "credit",
                "value": 25
            },
            "url": "https:\/\/overwatch-api.net\/api\/v1\/reward\/7",
            "type": {
                "id": 1,
                "name": "spray",
                "url": "https:\/\/overwatch-api.net\/api\/v1\/reward-type\/1"
            },
            "quality": {
                "name": "common"
            }
        },
        {
            "id": 8,
            "name": "Dark Overwatch",
            "cost": {
                "currency": "credit",
                "value": 25
            },
            "url": "https:\/\/overwatch-api.net\/api\/v1\/reward\/8",
            "type": {
                "id": 1,
                "name": "spray",
                "url": "https:\/\/overwatch-api.net\/api\/v1\/reward-type\/1"
            },
            "quality": {
                "name": "common"
            }
        },
        {
            "id": 9,
            "name": "Dark Title",
            "cost": {
                "currency": "credit",
                "value": 25
            },
            "url": "https:\/\/overwatch-api.net\/api\/v1\/reward\/9",
            "type": {
                "id": 1,
                "name": "spray",
                "url": "https:\/\/overwatch-api.net\/api\/v1\/reward-type\/1"
            },
            "quality": {
                "name": "common"
            }
        },
        {
            "id": 10,
            "name": "FOTS2",
            "cost": {
                "currency": "credit",
                "value": 25
            },
            "url": "https:\/\/overwatch-api.net\/api\/v1\/reward\/10",
            "type": {
                "id": 1,
                "name": "spray",
                "url": "https:\/\/overwatch-api.net\/api\/v1\/reward-type\/1"
            },
            "quality": {
                "name": "common"
            }
        },
        {
            "id": 11,
            "name": "Fuji",
            "cost": {
                "currency": "credit",
                "value": 25
            },
            "url": "https:\/\/overwatch-api.net\/api\/v1\/reward\/11",
            "type": {
                "id": 1,
                "name": "spray",
                "url": "https:\/\/overwatch-api.net\/api\/v1\/reward-type\/1"
            },
            "quality": {
                "name": "common"
            }
        },
        {
            "id": 12,
            "name": "Goldshire Pictures",
            "cost": {
                "currency": "credit",
                "value": 25
            },
            "url": "https:\/\/overwatch-api.net\/api\/v1\/reward\/12",
            "type": {
                "id": 1,
                "name": "spray",
                "url": "https:\/\/overwatch-api.net\/api\/v1\/reward-type\/1"
            },
            "quality": {
                "name": "common"
            }
        },
        {
            "id": 13,
            "name": "Leek",
            "cost": {
                "currency": "credit",
                "value": 25
            },
            "url": "https:\/\/overwatch-api.net\/api\/v1\/reward\/13",
            "type": {
                "id": 1,
                "name": "spray",
                "url": "https:\/\/overwatch-api.net\/api\/v1\/reward-type\/1"
            },
            "quality": {
                "name": "common"
            }
        },
        {
            "id": 14,
            "name": "Lumerico",
            "cost": {
                "currency": "credit",
                "value": 25
            },
            "url": "https:\/\/overwatch-api.net\/api\/v1\/reward\/14",
            "type": {
                "id": 1,
                "name": "spray",
                "url": "https:\/\/overwatch-api.net\/api\/v1\/reward-type\/1"
            },
            "quality": {
                "name": "common"
            }
        },
        {
            "id": 15,
            "name": "Numbani Statue",
            "cost": {
                "currency": "credit",
                "value": 25
            },
            "url": "https:\/\/overwatch-api.net\/api\/v1\/reward\/15",
            "type": {
                "id": 1,
                "name": "spray",
                "url": "https:\/\/overwatch-api.net\/api\/v1\/reward-type\/1"
            },
            "quality": {
                "name": "common"
            }
        },
        {
            "id": 16,
            "name": "Omnic Rights",
            "cost": {
                "currency": "credit",
                "value": 25
            },
            "url": "https:\/\/overwatch-api.net\/api\/v1\/reward\/16",
            "type": {
                "id": 1,
                "name": "spray",
                "url": "https:\/\/overwatch-api.net\/api\/v1\/reward-type\/1"
            },
            "quality": {
                "name": "common"
            }
        },
        {
            "id": 17,
            "name": "Overwatch",
            "cost": {
                "currency": "credit",
                "value": 25
            },
            "url": "https:\/\/overwatch-api.net\/api\/v1\/reward\/17",
            "type": {
                "id": 1,
                "name": "spray",
                "url": "https:\/\/overwatch-api.net\/api\/v1\/reward-type\/1"
            },
            "quality": {
                "name": "common"
            }
        },
        {
            "id": 18,
            "name": "Overwatch Title",
            "cost": {
                "currency": "credit",
                "value": 25
            },
            "url": "https:\/\/overwatch-api.net\/api\/v1\/reward\/18",
            "type": {
                "id": 1,
                "name": "spray",
                "url": "https:\/\/overwatch-api.net\/api\/v1\/reward-type\/1"
            },
            "quality": {
                "name": "common"
            }
        },
        {
            "id": 19,
            "name": "Rhino",
            "cost": {
                "currency": "credit",
                "value": 25
            },
            "url": "https:\/\/overwatch-api.net\/api\/v1\/reward\/19",
            "type": {
                "id": 1,
                "name": "spray",
                "url": "https:\/\/overwatch-api.net\/api\/v1\/reward-type\/1"
            },
            "quality": {
                "name": "common"
            }
        },
        {
            "id": 20,
            "name": "Rikmaru",
            "cost": {
                "currency": "credit",
                "value": 25
            },
            "url": "https:\/\/overwatch-api.net\/api\/v1\/reward\/20",
            "type": {
                "id": 1,
                "name": "spray",
                "url": "https:\/\/overwatch-api.net\/api\/v1\/reward-type\/1"
            },
            "quality": {
                "name": "common"
            }
        },
        {
            "id": 21,
            "name": "Sarcophagus",
            "cost": {
                "currency": "credit",
                "value": 25
            },
            "url": "https:\/\/overwatch-api.net\/api\/v1\/reward\/21",
            "type": {
                "id": 1,
                "name": "spray",
                "url": "https:\/\/overwatch-api.net\/api\/v1\/reward-type\/1"
            },
            "quality": {
                "name": "common"
            }
        },
        {
            "id": 22,
            "name": "Scooter",
            "cost": {
                "currency": "credit",
                "value": 25
            },
            "url": "https:\/\/overwatch-api.net\/api\/v1\/reward\/22",
            "type": {
                "id": 1,
                "name": "spray",
                "url": "https:\/\/overwatch-api.net\/api\/v1\/reward-type\/1"
            },
            "quality": {
                "name": "common"
            }
        },
        {
            "id": 23,
            "name": "Scroll",
            "cost": {
                "currency": "credit",
                "value": 25
            },
            "url": "https:\/\/overwatch-api.net\/api\/v1\/reward\/23",
            "type": {
                "id": 1,
                "name": "spray",
                "url": "https:\/\/overwatch-api.net\/api\/v1\/reward-type\/1"
            },
            "quality": {
                "name": "common"
            }
        },
        {
            "id": 24,
            "name": "Siege Mode",
            "cost": {
                "currency": "credit",
                "value": 25
            },
            "url": "https:\/\/overwatch-api.net\/api\/v1\/reward\/24",
            "type": {
                "id": 1,
                "name": "spray",
                "url": "https:\/\/overwatch-api.net\/api\/v1\/reward-type\/1"
            },
            "quality": {
                "name": "common"
            }
        },
        {
            "id": 25,
            "name": "Six-Gun Killer",
            "cost": {
                "currency": "credit",
                "value": 25
            },
            "url": "https:\/\/overwatch-api.net\/api\/v1\/reward\/25",
            "type": {
                "id": 1,
                "name": "spray",
                "url": "https:\/\/overwatch-api.net\/api\/v1\/reward-type\/1"
            },
            "quality": {
                "name": "common"
            }
        },
        {
            "id": 26,
            "name": "Sol",
            "cost": {
                "currency": "credit",
                "value": 25
            },
            "url": "https:\/\/overwatch-api.net\/api\/v1\/reward\/26",
            "type": {
                "id": 1,
                "name": "spray",
                "url": "https:\/\/overwatch-api.net\/api\/v1\/reward-type\/1"
            },
            "quality": {
                "name": "common"
            }
        },
        {
            "id": 27,
            "name": "Soulstone",
            "cost": {
                "currency": "credit",
                "value": 25
            },
            "url": "https:\/\/overwatch-api.net\/api\/v1\/reward\/27",
            "type": {
                "id": 1,
                "name": "spray",
                "url": "https:\/\/overwatch-api.net\/api\/v1\/reward-type\/1"
            },
            "quality": {
                "name": "common"
            }
        },
        {
            "id": 28,
            "name": "Vivi's Adventure",
            "cost": {
                "currency": "credit",
                "value": 25
            },
            "url": "https:\/\/overwatch-api.net\/api\/v1\/reward\/28",
            "type": {
                "id": 1,
                "name": "spray",
                "url": "https:\/\/overwatch-api.net\/api\/v1\/reward-type\/1"
            },
            "quality": {
                "name": "common"
            }
        },
        {
            "id": 29,
            "name": "Beyond the Moon",
            "cost": null,
            "url": "https:\/\/overwatch-api.net\/api\/v1\/reward\/29",
            "type": {
                "id": 1,
                "name": "spray",
                "url": "https:\/\/overwatch-api.net\/api\/v1\/reward-type\/1"
            },
            "quality": {
                "name": "common"
            }
        },
        {
            "id": 30,
            "name": "Forge Onward",
            "cost": null,
            "url": "https:\/\/overwatch-api.net\/api\/v1\/reward\/30",
            "type": {
                "id": 1,
                "name": "spray",
                "url": "https:\/\/overwatch-api.net\/api\/v1\/reward-type\/1"
            },
            "quality": {
                "name": "common"
            }
        },
        {
            "id": 31,
            "name": "GL HF",
            "cost": null,
            "url": "https:\/\/overwatch-api.net\/api\/v1\/reward\/31",
            "type": {
                "id": 1,
                "name": "spray",
                "url": "https:\/\/overwatch-api.net\/api\/v1\/reward-type\/1"
            },
            "quality": {
                "name": "common"
            }
        },
        {
            "id": 32,
            "name": "Jail",
            "cost": null,
            "url": "https:\/\/overwatch-api.net\/api\/v1\/reward\/32",
            "type": {
                "id": 1,
                "name": "spray",
                "url": "https:\/\/overwatch-api.net\/api\/v1\/reward-type\/1"
            },
            "quality": {
                "name": "common"
            }
        },
        {
            "id": 33,
            "name": "Man and Omnic",
            "cost": null,
            "url": "https:\/\/overwatch-api.net\/api\/v1\/reward\/33",
            "type": {
                "id": 1,
                "name": "spray",
                "url": "https:\/\/overwatch-api.net\/api\/v1\/reward-type\/1"
            },
            "quality": {
                "name": "common"
            }
        },
        {
            "id": 34,
            "name": "Oops",
            "cost": null,
            "url": "https:\/\/overwatch-api.net\/api\/v1\/reward\/34",
            "type": {
                "id": 1,
                "name": "spray",
                "url": "https:\/\/overwatch-api.net\/api\/v1\/reward-type\/1"
            },
            "quality": {
                "name": "common"
            }
        },
        {
            "id": 35,
            "name": "Out of My Way",
            "cost": null,
            "url": "https:\/\/overwatch-api.net\/api\/v1\/reward\/35",
            "type": {
                "id": 1,
                "name": "spray",
                "url": "https:\/\/overwatch-api.net\/api\/v1\/reward-type\/1"
            },
            "quality": {
                "name": "common"
            }
        },
        {
            "id": 36,
            "name": "Pinata",
            "cost": null,
            "url": "https:\/\/overwatch-api.net\/api\/v1\/reward\/36",
            "type": {
                "id": 1,
                "name": "spray",
                "url": "https:\/\/overwatch-api.net\/api\/v1\/reward-type\/1"
            },
            "quality": {
                "name": "common"
            }
        },
        {
            "id": 37,
            "name": "Red O",
            "cost": null,
            "url": "https:\/\/overwatch-api.net\/api\/v1\/reward\/37",
            "type": {
                "id": 1,
                "name": "spray",
                "url": "https:\/\/overwatch-api.net\/api\/v1\/reward-type\/1"
            },
            "quality": {
                "name": "common"
            }
        },
        {
            "id": 38,
            "name": "Red X",
            "cost": null,
            "url": "https:\/\/overwatch-api.net\/api\/v1\/reward\/38",
            "type": {
                "id": 1,
                "name": "spray",
                "url": "https:\/\/overwatch-api.net\/api\/v1\/reward-type\/1"
            },
            "quality": {
                "name": "common"
            }
        },
        {
            "id": 39,
            "name": "Respect",
            "cost": null,
            "url": "https:\/\/overwatch-api.net\/api\/v1\/reward\/39",
            "type": {
                "id": 1,
                "name": "spray",
                "url": "https:\/\/overwatch-api.net\/api\/v1\/reward-type\/1"
            },
            "quality": {
                "name": "common"
            }
        },
        {
            "id": 40,
            "name": "Rise",
            "cost": null,
            "url": "https:\/\/overwatch-api.net\/api\/v1\/reward\/40",
            "type": {
                "id": 1,
                "name": "spray",
                "url": "https:\/\/overwatch-api.net\/api\/v1\/reward-type\/1"
            },
            "quality": {
                "name": "common"
            }
        },
        {
            "id": 41,
            "name": "Sorry",
            "cost": null,
            "url": "https:\/\/overwatch-api.net\/api\/v1\/reward\/41",
            "type": {
                "id": 1,
                "name": "spray",
                "url": "https:\/\/overwatch-api.net\/api\/v1\/reward-type\/1"
            },
            "quality": {
                "name": "common"
            }
        },
        {
            "id": 42,
            "name": "Tea Time",
            "cost": null,
            "url": "https:\/\/overwatch-api.net\/api\/v1\/reward\/42",
            "type": {
                "id": 1,
                "name": "spray",
                "url": "https:\/\/overwatch-api.net\/api\/v1\/reward-type\/1"
            },
            "quality": {
                "name": "common"
            }
        },
        {
            "id": 43,
            "name": "Thanks",
            "cost": null,
            "url": "https:\/\/overwatch-api.net\/api\/v1\/reward\/43",
            "type": {
                "id": 1,
                "name": "spray",
                "url": "https:\/\/overwatch-api.net\/api\/v1\/reward-type\/1"
            },
            "quality": {
                "name": "common"
            }
        },
        {
            "id": 44,
            "name": "Victory",
            "cost": null,
            "url": "https:\/\/overwatch-api.net\/api\/v1\/reward\/44",
            "type": {
                "id": 1,
                "name": "spray",
                "url": "https:\/\/overwatch-api.net\/api\/v1\/reward-type\/1"
            },
            "quality": {
                "name": "common"
            }
        },
        {
            "id": 45,
            "name": "Well Played",
            "cost": null,
            "url": "https:\/\/overwatch-api.net\/api\/v1\/reward\/45",
            "type": {
                "id": 1,
                "name": "spray",
                "url": "https:\/\/overwatch-api.net\/api\/v1\/reward-type\/1"
            },
            "quality": {
                "name": "common"
            }
        },
        {
            "id": 46,
            "name": "Action",
            "cost": {
                "currency": "credit",
                "value": 25
            },
            "url": "https:\/\/overwatch-api.net\/api\/v1\/reward\/46",
            "type": {
                "id": 1,
                "name": "spray",
                "url": "https:\/\/overwatch-api.net\/api\/v1\/reward-type\/1"
            },
            "quality": {
                "name": "common"
            }
        },
        {
            "id": 47,
            "name": "Ana",
            "cost": {
                "currency": "credit",
                "value": 25
            },
            "url": "https:\/\/overwatch-api.net\/api\/v1\/reward\/47",
            "type": {
                "id": 1,
                "name": "spray",
                "url": "https:\/\/overwatch-api.net\/api\/v1\/reward-type\/1"
            },
            "quality": {
                "name": "common"
            }
        },
        {
            "id": 48,
            "name": "Bearer",
            "cost": {
                "currency": "credit",
                "value": 25
            },
            "url": "https:\/\/overwatch-api.net\/api\/v1\/reward\/48",
            "type": {
                "id": 1,
                "name": "spray",
                "url": "https:\/\/overwatch-api.net\/api\/v1\/reward-type\/1"
            },
            "quality": {
                "name": "common"
            }
        },
        {
            "id": 49,
            "name": "Cheer",
            "cost": {
                "currency": "credit",
                "value": 25
            },
            "url": "https:\/\/overwatch-api.net\/api\/v1\/reward\/49",
            "type": {
                "id": 1,
                "name": "spray",
                "url": "https:\/\/overwatch-api.net\/api\/v1\/reward-type\/1"
            },
            "quality": {
                "name": "common"
            }
        },
        {
            "id": 50,
            "name": "Cracked",
            "cost": {
                "currency": "credit",
                "value": 25
            },
            "url": "https:\/\/overwatch-api.net\/api\/v1\/reward\/50",
            "type": {
                "id": 1,
                "name": "spray",
                "url": "https:\/\/overwatch-api.net\/api\/v1\/reward-type\/1"
            },
            "quality": {
                "name": "common"
            }
        }
    ]
}
