{  
   "last":"http://overwatch-api.net/api/v1/reward?page=38",
   "first":"http://overwatch-api.net/api/v1/reward?page=1",
   "next":"http://overwatch-api.net/api/v1/reward?page=2",
   "total":1886,
   "data":[  
      {  
         "name":"Logo",
         "url":"https://overwatch-api.net/api/v1/reward/1",
         "type":{  
            "url":"https://overwatch-api.net/api/v1/reward-type/1",
            "id":1,
            "name":"spray"
         },
         "cost":null,
         "quality":{  
            "name":"common"
         },
         "id":1
      },
      {  
         "name":"You Are Not Prepared!",
         "url":"https://overwatch-api.net/api/v1/reward/2",
         "type":{  
            "url":"https://overwatch-api.net/api/v1/reward-type/1",
            "id":1,
            "name":"spray"
         },
         "cost":null,
         "quality":{  
            "name":"common"
         },
         "id":2
      },
      {  
         "name":"Punch",
         "url":"https://overwatch-api.net/api/v1/reward/3",
         "type":{  
            "url":"https://overwatch-api.net/api/v1/reward-type/1",
            "id":1,
            "name":"spray"
         },
         "cost":{  
            "currency":"credit",
            "value":25
         },
         "quality":{  
            "name":"common"
         },
         "id":3
      },
      {  
         "name":"Catcher",
         "url":"https://overwatch-api.net/api/v1/reward/4",
         "type":{  
            "url":"https://overwatch-api.net/api/v1/reward-type/1",
            "id":1,
            "name":"spray"
         },
         "cost":{  
            "currency":"credit",
            "value":25
         },
         "quality":{  
            "name":"common"
         },
         "id":4
      },
      {  
         "name":"Caution",
         "url":"https://overwatch-api.net/api/v1/reward/5",
         "type":{  
            "url":"https://overwatch-api.net/api/v1/reward-type/1",
            "id":1,
            "name":"spray"
         },
         "cost":{  
            "currency":"credit",
            "value":25
         },
         "quality":{  
            "name":"common"
         },
         "id":5
      },
      {  
         "name":"Dance",
         "url":"https://overwatch-api.net/api/v1/reward/6",
         "type":{  
            "url":"https://overwatch-api.net/api/v1/reward-type/1",
            "id":1,
            "name":"spray"
         },
         "cost":{  
            "currency":"credit",
            "value":25
         },
         "quality":{  
            "name":"common"
         },
         "id":6
      },
      {  
         "name":"Dark Logo",
         "url":"https://overwatch-api.net/api/v1/reward/7",
         "type":{  
            "url":"https://overwatch-api.net/api/v1/reward-type/1",
            "id":1,
            "name":"spray"
         },
         "cost":{  
            "currency":"credit",
            "value":25
         },
         "quality":{  
            "name":"common"
         },
         "id":7
      },
      {  
         "name":"Dark Overwatch",
         "url":"https://overwatch-api.net/api/v1/reward/8",
         "type":{  
            "url":"https://overwatch-api.net/api/v1/reward-type/1",
            "id":1,
            "name":"spray"
         },
         "cost":{  
            "currency":"credit",
            "value":25
         },
         "quality":{  
            "name":"common"
         },
         "id":8
      },
      {  
         "name":"Dark Title",
         "url":"https://overwatch-api.net/api/v1/reward/9",
         "type":{  
            "url":"https://overwatch-api.net/api/v1/reward-type/1",
            "id":1,
            "name":"spray"
         },
         "cost":{  
            "currency":"credit",
            "value":25
         },
         "quality":{  
            "name":"common"
         },
         "id":9
      },
      {  
         "name":"FOTS2",
         "url":"https://overwatch-api.net/api/v1/reward/10",
         "type":{  
            "url":"https://overwatch-api.net/api/v1/reward-type/1",
            "id":1,
            "name":"spray"
         },
         "cost":{  
            "currency":"credit",
            "value":25
         },
         "quality":{  
            "name":"common"
         },
         "id":10
      },
      {  
         "name":"Fuji",
         "url":"https://overwatch-api.net/api/v1/reward/11",
         "type":{  
            "url":"https://overwatch-api.net/api/v1/reward-type/1",
            "id":1,
            "name":"spray"
         },
         "cost":{  
            "currency":"credit",
            "value":25
         },
         "quality":{  
            "name":"common"
         },
         "id":11
      },
      {  
         "name":"Goldshire Pictures",
         "url":"https://overwatch-api.net/api/v1/reward/12",
         "type":{  
            "url":"https://overwatch-api.net/api/v1/reward-type/1",
            "id":1,
            "name":"spray"
         },
         "cost":{  
            "currency":"credit",
            "value":25
         },
         "quality":{  
            "name":"common"
         },
         "id":12
      },
      {  
         "name":"Leek",
         "url":"https://overwatch-api.net/api/v1/reward/13",
         "type":{  
            "url":"https://overwatch-api.net/api/v1/reward-type/1",
            "id":1,
            "name":"spray"
         },
         "cost":{  
            "currency":"credit",
            "value":25
         },
         "quality":{  
            "name":"common"
         },
         "id":13
      },
      {  
         "name":"Lumerico",
         "url":"https://overwatch-api.net/api/v1/reward/14",
         "type":{  
            "url":"https://overwatch-api.net/api/v1/reward-type/1",
            "id":1,
            "name":"spray"
         },
         "cost":{  
            "currency":"credit",
            "value":25
         },
         "quality":{  
            "name":"common"
         },
         "id":14
      },
      {  
         "name":"Numbani Statue",
         "url":"https://overwatch-api.net/api/v1/reward/15",
         "type":{  
            "url":"https://overwatch-api.net/api/v1/reward-type/1",
            "id":1,
            "name":"spray"
         },
         "cost":{  
            "currency":"credit",
            "value":25
         },
         "quality":{  
            "name":"common"
         },
         "id":15
      },
      {  
         "name":"Omnic Rights",
         "url":"https://overwatch-api.net/api/v1/reward/16",
         "type":{  
            "url":"https://overwatch-api.net/api/v1/reward-type/1",
            "id":1,
            "name":"spray"
         },
         "cost":{  
            "currency":"credit",
            "value":25
         },
         "quality":{  
            "name":"common"
         },
         "id":16
      },
      {  
         "name":"Overwatch",
         "url":"https://overwatch-api.net/api/v1/reward/17",
         "type":{  
            "url":"https://overwatch-api.net/api/v1/reward-type/1",
            "id":1,
            "name":"spray"
         },
         "cost":{  
            "currency":"credit",
            "value":25
         },
         "quality":{  
            "name":"common"
         },
         "id":17
      },
      {  
         "name":"Overwatch Title",
         "url":"https://overwatch-api.net/api/v1/reward/18",
         "type":{  
            "url":"https://overwatch-api.net/api/v1/reward-type/1",
            "id":1,
            "name":"spray"
         },
         "cost":{  
            "currency":"credit",
            "value":25
         },
         "quality":{  
            "name":"common"
         },
         "id":18
      },
      {  
         "name":"Rhino",
         "url":"https://overwatch-api.net/api/v1/reward/19",
         "type":{  
            "url":"https://overwatch-api.net/api/v1/reward-type/1",
            "id":1,
            "name":"spray"
         },
         "cost":{  
            "currency":"credit",
            "value":25
         },
         "quality":{  
            "name":"common"
         },
         "id":19
      },
      {  
         "name":"Rikmaru",
         "url":"https://overwatch-api.net/api/v1/reward/20",
         "type":{  
            "url":"https://overwatch-api.net/api/v1/reward-type/1",
            "id":1,
            "name":"spray"
         },
         "cost":{  
            "currency":"credit",
            "value":25
         },
         "quality":{  
            "name":"common"
         },
         "id":20
      },
      {  
         "name":"Sarcophagus",
         "url":"https://overwatch-api.net/api/v1/reward/21",
         "type":{  
            "url":"https://overwatch-api.net/api/v1/reward-type/1",
            "id":1,
            "name":"spray"
         },
         "cost":{  
            "currency":"credit",
            "value":25
         },
         "quality":{  
            "name":"common"
         },
         "id":21
      },
      {  
         "name":"Scooter",
         "url":"https://overwatch-api.net/api/v1/reward/22",
         "type":{  
            "url":"https://overwatch-api.net/api/v1/reward-type/1",
            "id":1,
            "name":"spray"
         },
         "cost":{  
            "currency":"credit",
            "value":25
         },
         "quality":{  
            "name":"common"
         },
         "id":22
      },
      {  
         "name":"Scroll",
         "url":"https://overwatch-api.net/api/v1/reward/23",
         "type":{  
            "url":"https://overwatch-api.net/api/v1/reward-type/1",
            "id":1,
            "name":"spray"
         },
         "cost":{  
            "currency":"credit",
            "value":25
         },
         "quality":{  
            "name":"common"
         },
         "id":23
      },
      {  
         "name":"Siege Mode",
         "url":"https://overwatch-api.net/api/v1/reward/24",
         "type":{  
            "url":"https://overwatch-api.net/api/v1/reward-type/1",
            "id":1,
            "name":"spray"
         },
         "cost":{  
            "currency":"credit",
            "value":25
         },
         "quality":{  
            "name":"common"
         },
         "id":24
      },
      {  
         "name":"Six-Gun Killer",
         "url":"https://overwatch-api.net/api/v1/reward/25",
         "type":{  
            "url":"https://overwatch-api.net/api/v1/reward-type/1",
            "id":1,
            "name":"spray"
         },
         "cost":{  
            "currency":"credit",
            "value":25
         },
         "quality":{  
            "name":"common"
         },
         "id":25
      },
      {  
         "name":"Sol",
         "url":"https://overwatch-api.net/api/v1/reward/26",
         "type":{  
            "url":"https://overwatch-api.net/api/v1/reward-type/1",
            "id":1,
            "name":"spray"
         },
         "cost":{  
            "currency":"credit",
            "value":25
         },
         "quality":{  
            "name":"common"
         },
         "id":26
      },
      {  
         "name":"Soulstone",
         "url":"https://overwatch-api.net/api/v1/reward/27",
         "type":{  
            "url":"https://overwatch-api.net/api/v1/reward-type/1",
            "id":1,
            "name":"spray"
         },
         "cost":{  
            "currency":"credit",
            "value":25
         },
         "quality":{  
            "name":"common"
         },
         "id":27
      },
      {  
         "name":"Vivi's Adventure",
         "url":"https://overwatch-api.net/api/v1/reward/28",
         "type":{  
            "url":"https://overwatch-api.net/api/v1/reward-type/1",
            "id":1,
            "name":"spray"
         },
         "cost":{  
            "currency":"credit",
            "value":25
         },
         "quality":{  
            "name":"common"
         },
         "id":28
      },
      {  
         "name":"Beyond the Moon",
         "url":"https://overwatch-api.net/api/v1/reward/29",
         "type":{  
            "url":"https://overwatch-api.net/api/v1/reward-type/1",
            "id":1,
            "name":"spray"
         },
         "cost":null,
         "quality":{  
            "name":"common"
         },
         "id":29
      },
      {  
         "name":"Forge Onward",
         "url":"https://overwatch-api.net/api/v1/reward/30",
         "type":{  
            "url":"https://overwatch-api.net/api/v1/reward-type/1",
            "id":1,
            "name":"spray"
         },
         "cost":null,
         "quality":{  
            "name":"common"
         },
         "id":30
      },
      {  
         "name":"GL HF",
         "url":"https://overwatch-api.net/api/v1/reward/31",
         "type":{  
            "url":"https://overwatch-api.net/api/v1/reward-type/1",
            "id":1,
            "name":"spray"
         },
         "cost":null,
         "quality":{  
            "name":"common"
         },
         "id":31
      },
      {  
         "name":"Jail",
         "url":"https://overwatch-api.net/api/v1/reward/32",
         "type":{  
            "url":"https://overwatch-api.net/api/v1/reward-type/1",
            "id":1,
            "name":"spray"
         },
         "cost":null,
         "quality":{  
            "name":"common"
         },
         "id":32
      },
      {  
         "name":"Man and Omnic",
         "url":"https://overwatch-api.net/api/v1/reward/33",
         "type":{  
            "url":"https://overwatch-api.net/api/v1/reward-type/1",
            "id":1,
            "name":"spray"
         },
         "cost":null,
         "quality":{  
            "name":"common"
         },
         "id":33
      },
      {  
         "name":"Oops",
         "url":"https://overwatch-api.net/api/v1/reward/34",
         "type":{  
            "url":"https://overwatch-api.net/api/v1/reward-type/1",
            "id":1,
            "name":"spray"
         },
         "cost":null,
         "quality":{  
            "name":"common"
         },
         "id":34
      },
      {  
         "name":"Out of My Way",
         "url":"https://overwatch-api.net/api/v1/reward/35",
         "type":{  
            "url":"https://overwatch-api.net/api/v1/reward-type/1",
            "id":1,
            "name":"spray"
         },
         "cost":null,
         "quality":{  
            "name":"common"
         },
         "id":35
      },
      {  
         "name":"Pinata",
         "url":"https://overwatch-api.net/api/v1/reward/36",
         "type":{  
            "url":"https://overwatch-api.net/api/v1/reward-type/1",
            "id":1,
            "name":"spray"
         },
         "cost":null,
         "quality":{  
            "name":"common"
         },
         "id":36
      },
      {  
         "name":"Red O",
         "url":"https://overwatch-api.net/api/v1/reward/37",
         "type":{  
            "url":"https://overwatch-api.net/api/v1/reward-type/1",
            "id":1,
            "name":"spray"
         },
         "cost":null,
         "quality":{  
            "name":"common"
         },
         "id":37
      },
      {  
         "name":"Red X",
         "url":"https://overwatch-api.net/api/v1/reward/38",
         "type":{  
            "url":"https://overwatch-api.net/api/v1/reward-type/1",
            "id":1,
            "name":"spray"
         },
         "cost":null,
         "quality":{  
            "name":"common"
         },
         "id":38
      },
      {  
         "name":"Respect",
         "url":"https://overwatch-api.net/api/v1/reward/39",
         "type":{  
            "url":"https://overwatch-api.net/api/v1/reward-type/1",
            "id":1,
            "name":"spray"
         },
         "cost":null,
         "quality":{  
            "name":"common"
         },
         "id":39
      },
      {  
         "name":"Rise",
         "url":"https://overwatch-api.net/api/v1/reward/40",
         "type":{  
            "url":"https://overwatch-api.net/api/v1/reward-type/1",
            "id":1,
            "name":"spray"
         },
         "cost":null,
         "quality":{  
            "name":"common"
         },
         "id":40
      },
      {  
         "name":"Sorry",
         "url":"https://overwatch-api.net/api/v1/reward/41",
         "type":{  
            "url":"https://overwatch-api.net/api/v1/reward-type/1",
            "id":1,
            "name":"spray"
         },
         "cost":null,
         "quality":{  
            "name":"common"
         },
         "id":41
      },
      {  
         "name":"Tea Time",
         "url":"https://overwatch-api.net/api/v1/reward/42",
         "type":{  
            "url":"https://overwatch-api.net/api/v1/reward-type/1",
            "id":1,
            "name":"spray"
         },
         "cost":null,
         "quality":{  
            "name":"common"
         },
         "id":42
      },
      {  
         "name":"Thanks",
         "url":"https://overwatch-api.net/api/v1/reward/43",
         "type":{  
            "url":"https://overwatch-api.net/api/v1/reward-type/1",
            "id":1,
            "name":"spray"
         },
         "cost":null,
         "quality":{  
            "name":"common"
         },
         "id":43
      },
      {  
         "name":"Victory",
         "url":"https://overwatch-api.net/api/v1/reward/44",
         "type":{  
            "url":"https://overwatch-api.net/api/v1/reward-type/1",
            "id":1,
            "name":"spray"
         },
         "cost":null,
         "quality":{  
            "name":"common"
         },
         "id":44
      },
      {  
         "name":"Well Played",
         "url":"https://overwatch-api.net/api/v1/reward/45",
         "type":{  
            "url":"https://overwatch-api.net/api/v1/reward-type/1",
            "id":1,
            "name":"spray"
         },
         "cost":null,
         "quality":{  
            "name":"common"
         },
         "id":45
      },
      {  
         "name":"Action",
         "url":"https://overwatch-api.net/api/v1/reward/46",
         "type":{  
            "url":"https://overwatch-api.net/api/v1/reward-type/1",
            "id":1,
            "name":"spray"
         },
         "cost":{  
            "currency":"credit",
            "value":25
         },
         "quality":{  
            "name":"common"
         },
         "id":46
      },
      {  
         "name":"Ana",
         "url":"https://overwatch-api.net/api/v1/reward/47",
         "type":{  
            "url":"https://overwatch-api.net/api/v1/reward-type/1",
            "id":1,
            "name":"spray"
         },
         "cost":{  
            "currency":"credit",
            "value":25
         },
         "quality":{  
            "name":"common"
         },
         "id":47
      },
      {  
         "name":"Bearer",
         "url":"https://overwatch-api.net/api/v1/reward/48",
         "type":{  
            "url":"https://overwatch-api.net/api/v1/reward-type/1",
            "id":1,
            "name":"spray"
         },
         "cost":{  
            "currency":"credit",
            "value":25
         },
         "quality":{  
            "name":"common"
         },
         "id":48
      },
      {  
         "name":"Cheer",
         "url":"https://overwatch-api.net/api/v1/reward/49",
         "type":{  
            "url":"https://overwatch-api.net/api/v1/reward-type/1",
            "id":1,
            "name":"spray"
         },
         "cost":{  
            "currency":"credit",
            "value":25
         },
         "quality":{  
            "name":"common"
         },
         "id":49
      },
      {  
         "name":"Cracked",
         "url":"https://overwatch-api.net/api/v1/reward/50",
         "type":{  
            "url":"https://overwatch-api.net/api/v1/reward-type/1",
            "id":1,
            "name":"spray"
         },
         "cost":{  
            "currency":"credit",
            "value":25
         },
         "quality":{  
            "name":"common"
         },
         "id":50
      }
   ],
   "previous":null
}
